Info: Starting: Create block symbol file (.bsf)
Info: qsys-generate /home/olchansk/git/chronobox_firmware/serial_flash_loader.qsys --block-symbol-file --output-directory=/home/olchansk/git/chronobox_firmware/serial_flash_loader --family="Cyclone V" --part=5CSEBA6U23I7
Progress: Loading chronobox_firmware/serial_flash_loader.qsys
Progress: Reading input file
Progress: Adding serial_flash_loader_0 [altera_serial_flash_loader 17.1]
Progress: Parameterizing module serial_flash_loader_0
Progress: Building connections
Progress: Parameterizing connections
Progress: Validating
Progress: Done reading input file
Info: qsys-generate succeeded.
Info: Finished: Create block symbol file (.bsf)
Info: 
Info: Starting: Create HDL design files for synthesis
Info: qsys-generate /home/olchansk/git/chronobox_firmware/serial_flash_loader.qsys --synthesis=VERILOG --output-directory=/home/olchansk/git/chronobox_firmware/serial_flash_loader/synthesis --family="Cyclone V" --part=5CSEBA6U23I7
Progress: Loading chronobox_firmware/serial_flash_loader.qsys
Progress: Reading input file
Progress: Adding serial_flash_loader_0 [altera_serial_flash_loader 17.1]
Progress: Parameterizing module serial_flash_loader_0
Progress: Building connections
Progress: Parameterizing connections
Progress: Validating
Progress: Done reading input file
Info: serial_flash_loader: Generating serial_flash_loader "serial_flash_loader" for QUARTUS_SYNTH
Info: serial_flash_loader_0: generating top-level entity altera_serial_flash_loader
Info: serial_flash_loader_0: "serial_flash_loader" instantiated altera_serial_flash_loader "serial_flash_loader_0"
Info: serial_flash_loader: Done "serial_flash_loader" with 2 modules, 2 files
Info: qsys-generate succeeded.
Info: Finished: Create HDL design files for synthesis
